{
  "samples": [
    {
      "P": 0.0,
      "S": 40.0,
      "VL": 1.0,
      "X": 0.1,
      "TP": 0.0
    },
    {
      "P": 3.106,
      "S": 51.8874,
      "VL": 1.0981,
      "X": 16.1927,
      "TP": 13.0
    },
    {
      "P": 15.8528,
      "S": 0.012,
      "VL": 1.3677,
      "X": 82.7132,
      "TP": 19.0
    },
    {
      "P": 25.7657,
      "S": 0.0127,
      "VL": 2.0278,
      "X": 135.8715,
      "TP": 25.0
    },
    {
      "P": 28.8912,
      "S": 0.0,
      "VL": 2.4899,
      "X": 155.4286,
      "TP": 31.0
    },
    {
      "P": 27.5892,
      "S": 0.0,
      "VL": 2.4899,
      "X": 153.8274,
      "TP": 37.0
    },
    {
      "P": 26.3545,
      "S": 0.0,
      "VL": 2.4899,
      "X": 152.253,
      "TP": 43.0
    }
  ]
}