{
  "samples": [
    {
      "P": 0.0,
      "S": 40.0,
      "VL": 1.0,
      "X": 0.1,
      "TP": 0.0
    },
    {
      "P": 0.6678,
      "S": 40.3909,
      "VL": 1.0093,
      "X": 3.5595,
      "TP": 9.0
    },
    {
      "P": 6.5221,
      "S": 34.6145,
      "VL": 1.1439,
      "X": 34.0057,
      "TP": 15.0
    },
    {
      "P": 17.4867,
      "S": 0.011,
      "VL": 1.4412,
      "X": 91.7498,
      "TP": 21.0
    },
    {
      "P": 26.904,
      "S": 0.0115,
      "VL": 2.1464,
      "X": 142.3355,
      "TP": 27.0
    },
    {
      "P": 28.7271,
      "S": 0.0,
      "VL": 2.4899,
      "X": 155.5626,
      "TP": 33.0
    },
    {
      "P": 27.4336,
      "S": 0.0,
      "VL": 2.4899,
      "X": 153.9592,
      "TP": 39.0
    }
  ]
}