{
  "samples": [
    {
      "P": 0.0,
      "S": 40.0,
      "VL": 1.0,
      "X": 0.1,
      "TP": 0.0
    },
    {
      "P": 0.6677,
      "S": 40.462,
      "VL": 1.0094,
      "X": 3.5589,
      "TP": 9.0
    },
    {
      "P": 6.5067,
      "S": 35.7541,
      "VL": 1.1465,
      "X": 33.9253,
      "TP": 15.0
    },
    {
      "P": 17.7148,
      "S": 0.0112,
      "VL": 1.4519,
      "X": 92.9244,
      "TP": 21.0
    },
    {
      "P": 27.2381,
      "S": 0.0117,
      "VL": 2.1824,
      "X": 144.0638,
      "TP": 27.0
    },
    {
      "P": 28.6882,
      "S": 0.0,
      "VL": 2.4899,
      "X": 155.5215,
      "TP": 33.0
    },
    {
      "P": 27.3967,
      "S": 0.0,
      "VL": 2.4899,
      "X": 153.9188,
      "TP": 39.0
    }
  ]
}